\relax 
\providecommand\hyper@newdestlabel[2]{}
\providecommand\HyperFirstAtBeginDocument{\AtBeginDocument}
\HyperFirstAtBeginDocument{\ifx\hyper@anchor\@undefined
\global\let\oldcontentsline\contentsline
\gdef\contentsline#1#2#3#4{\oldcontentsline{#1}{#2}{#3}}
\global\let\oldnewlabel\newlabel
\gdef\newlabel#1#2{\newlabelxx{#1}#2}
\gdef\newlabelxx#1#2#3#4#5#6{\oldnewlabel{#1}{{#2}{#3}}}
\AtEndDocument{\ifx\hyper@anchor\@undefined
\let\contentsline\oldcontentsline
\let\newlabel\oldnewlabel
\fi}
\fi}
\global\let\hyper@last\relax 
\gdef\HyperFirstAtBeginDocument#1{#1}
\providecommand\HyField@AuxAddToFields[1]{}
\providecommand\HyField@AuxAddToCoFields[2]{}
\@writefile{toc}{\contentsline {section}{\numberline {1}Introduction}{1}{section.1}\protected@file@percent }
\@writefile{toc}{\contentsline {subsection}{\numberline {1.1}Goal}{1}{subsection.1.1}\protected@file@percent }
\@writefile{toc}{\contentsline {subsection}{\numberline {1.2}A Note About Units}{1}{subsection.1.2}\protected@file@percent }
\@writefile{toc}{\contentsline {section}{\numberline {2}Calculation}{1}{section.2}\protected@file@percent }
\@writefile{toc}{\contentsline {subsection}{\numberline {2.1}Deriving a Calculation Method via a Simple Example}{1}{subsection.2.1}\protected@file@percent }
\newlabel{eq:mass_fraction_nitrogen}{{1}{1}{Deriving a Calculation Method via a Simple Example}{equation.2.1}{}}
\newlabel{eq:mass_fraction_phosphorus_K2HPO4}{{3}{1}{Deriving a Calculation Method via a Simple Example}{equation.2.3}{}}
\newlabel{eq:C_K2HPO4}{{4}{1}{Deriving a Calculation Method via a Simple Example}{equation.2.4}{}}
\newlabel{eq:C_rest}{{6}{1}{Deriving a Calculation Method via a Simple Example}{equation.2.6}{}}
\newlabel{eq:problem_equation}{{7}{1}{Deriving a Calculation Method via a Simple Example}{equation.2.7}{}}
\newlabel{eq:problem_equation_matrix}{{8}{2}{Deriving a Calculation Method via a Simple Example}{equation.2.8}{}}
\newlabel{eq:solution1}{{9}{2}{Deriving a Calculation Method via a Simple Example}{equation.2.9}{}}
\@writefile{lol}{\contentsline {listing}{\numberline {1}{\ignorespaces Using python to solve Equation \ref  {eq:problem_equation_matrix}.\relax }}{2}{listing.caption.1}\protected@file@percent }
\providecommand*\caption@xref[2]{\@setref\relax\@undefined{#1}}
\newlabel{code:python1}{{1}{2}{Using python to solve Equation \ref {eq:problem_equation_matrix}.\relax }{listing.caption.1}{}}
\@writefile{toc}{\contentsline {subsection}{\numberline {2.2}A More Complicated Example}{2}{subsection.2.2}\protected@file@percent }
\newlabel{sec:big_example}{{2.2}{2}{A More Complicated Example}{subsection.2.2}{}}
\@writefile{lot}{\contentsline {table}{\numberline {1}{\ignorespaces Text\relax }}{2}{table.caption.2}\protected@file@percent }
\newlabel{tab:full_nutrient_solution}{{1}{2}{Text\relax }{table.caption.2}{}}
\newlabel{eq:big_matrix}{{11}{2}{A More Complicated Example}{equation.2.11}{}}
\newlabel{eq:big_solution}{{12}{2}{A More Complicated Example}{equation.2.12}{}}
\@writefile{toc}{\contentsline {subsection}{\numberline {2.3}Limitations of the Method}{3}{subsection.2.3}\protected@file@percent }
\newlabel{eq:negative_amounts}{{13}{3}{Limitations of the Method}{equation.2.13}{}}
\@writefile{toc}{\contentsline {section}{\numberline {3}Appendices?}{3}{section.3}\protected@file@percent }
\@writefile{lot}{\contentsline {table}{\numberline {2}{\ignorespaces Mass fraction vectors (in \si {ppm/gram}) for macronutrients in common salts\relax }}{4}{table.caption.3}\protected@file@percent }
\newlabel{tab:mass_fraction_vectors}{{2}{4}{Mass fraction vectors (in \si {ppm/gram}) for macronutrients in common salts\relax }{table.caption.3}{}}
\gdef\minted@oldcachelist{,
  default-pyg-prefix.pygstyle,
  friendly.pygstyle,
  F3F1B5AD9072884518ADD9338530126BD3A73A2E15C87B95F4092FE03C8B215D.pygtex}
