\relax 
\providecommand\hyper@newdestlabel[2]{}
\providecommand\HyperFirstAtBeginDocument{\AtBeginDocument}
\HyperFirstAtBeginDocument{\ifx\hyper@anchor\@undefined
\global\let\oldcontentsline\contentsline
\gdef\contentsline#1#2#3#4{\oldcontentsline{#1}{#2}{#3}}
\global\let\oldnewlabel\newlabel
\gdef\newlabel#1#2{\newlabelxx{#1}#2}
\gdef\newlabelxx#1#2#3#4#5#6{\oldnewlabel{#1}{{#2}{#3}}}
\AtEndDocument{\ifx\hyper@anchor\@undefined
\let\contentsline\oldcontentsline
\let\newlabel\oldnewlabel
\fi}
\fi}
\global\let\hyper@last\relax 
\gdef\HyperFirstAtBeginDocument#1{#1}
\providecommand\HyField@AuxAddToFields[1]{}
\providecommand\HyField@AuxAddToCoFields[2]{}
\providecommand \oddpage@label [2]{}
\@writefile{nav}{\headcommand {\slideentry {0}{0}{1}{1/1}{}{0}}}
\@writefile{nav}{\headcommand {\beamer@framepages {1}{1}}}
\@writefile{nav}{\headcommand {\slideentry {0}{0}{2}{2/2}{}{0}}}
\@writefile{nav}{\headcommand {\beamer@framepages {2}{2}}}
\providecommand*\caption@xref[2]{\@setref\relax\@undefined{#1}}
\newlabel{tab:elements}{{\caption@xref {tab:elements}{ on input line 391}}{3}{}{Doc-Start}{}}
\@writefile{snm}{\beamer@slide {tab:elements}{3}}
\@writefile{nav}{\headcommand {\slideentry {0}{0}{3}{3/3}{}{0}}}
\@writefile{nav}{\headcommand {\beamer@framepages {3}{3}}}
\newlabel{fig:salts}{{1}{4}{The afformentioned salts and other materials used in the preparation of hydroponic nutrient solutions.\relax }{Doc-Start}{}}
\@writefile{snm}{\beamer@slide {fig:salts}{4}}
\oddpage@label{1}{4}
\savepicturepage{pgfid11}{4}
\pgfsyspdfmark {pgfid11}{1864679}{-661969}
\oddpage@label{2}{5}
\oddpage@label{4}{5}
\oddpage@label{3}{5}
\savepicturepage{pgfid14}{5}
\pgfsyspdfmark {pgfid14}{2573266}{9734405}
\savepicturepage{pgfid15}{5}
\pgfsyspdfmark {pgfid15}{1864679}{7202020}
\savepicturepage{pgfid13}{5}
\pgfsyspdfmark {pgfid13}{1864679}{-661969}
\@writefile{nav}{\headcommand {\slideentry {0}{0}{4}{4/5}{}{0}}}
\@writefile{nav}{\headcommand {\beamer@framepages {4}{5}}}
\@writefile{nav}{\headcommand {\slideentry {0}{0}{5}{6/6}{}{0}}}
\@writefile{nav}{\headcommand {\beamer@framepages {6}{6}}}
\newlabel{:two_eqs}{{1}{7}{Two linear equations in two variables}{Doc-Start}{}}
\@writefile{snm}{\beamer@slide {:two_eqs}{7}}
\@writefile{snm}{\beamer@slide {eq:two_eqs}{7}}
\newlabel{eq:two_eqs}{{1}{7}{Two linear equations in two variables}{Doc-Start}{}}
\@writefile{snm}{\beamer@slide {eq:two_eqs_sol}{7}}
\newlabel{eq:two_eqs_sol}{{2}{7}{Two linear equations in two variables}{Doc-Start}{}}
\@writefile{nav}{\headcommand {\slideentry {0}{0}{6}{7/7}{}{0}}}
\@writefile{nav}{\headcommand {\beamer@framepages {7}{7}}}
\newlabel{:three_eqs}{{2}{8}{Three linear equations in three variables}{Doc-Start}{}}
\@writefile{snm}{\beamer@slide {:three_eqs}{8}}
\@writefile{snm}{\beamer@slide {eq:three_eqs}{8}}
\newlabel{eq:three_eqs}{{3}{8}{Three linear equations in three variables}{Doc-Start}{}}
\@writefile{snm}{\beamer@slide {eq:three_eqs_sol}{8}}
\newlabel{eq:three_eqs_sol}{{4}{8}{Three linear equations in three variables}{Doc-Start}{}}
\@writefile{nav}{\headcommand {\slideentry {0}{0}{7}{8/8}{}{0}}}
\@writefile{nav}{\headcommand {\beamer@framepages {8}{8}}}
\newlabel{:lin_eqs}{{1}{9}{}{Doc-Start}{}}
\@writefile{snm}{\beamer@slide {:lin_eqs}{9}}
\@writefile{snm}{\beamer@slide {eq:lin_eq}{9}}
\newlabel{eq:lin_eq}{{5}{9}{}{Doc-Start}{}}
\newlabel{:sys_lin_eqs}{{2}{9}{}{Doc-Start}{}}
\@writefile{snm}{\beamer@slide {:sys_lin_eqs}{9}}
\@writefile{snm}{\beamer@slide {eq:sys_lin_eq}{9}}
\@writefile{nav}{\headcommand {\slideentry {0}{0}{8}{9/9}{}{0}}}
\@writefile{nav}{\headcommand {\beamer@framepages {9}{9}}}
\newlabel{:matrices}{{3}{10}{Matrices}{Doc-Start}{}}
\@writefile{snm}{\beamer@slide {:matrices}{10}}
\@writefile{nav}{\headcommand {\slideentry {0}{0}{9}{10/10}{}{0}}}
\@writefile{nav}{\headcommand {\beamer@framepages {10}{10}}}
\oddpage@label{5}{11}
\savepicturepage{pgfid32}{11}
\pgfsyspdfmark {pgfid32}{9976043}{11754021}
\oddpage@label{6}{11}
\savepicturepage{pgfid33}{11}
\pgfsyspdfmark {pgfid33}{11281317}{11754021}
\oddpage@label{7}{11}
\savepicturepage{pgfid34}{11}
\pgfsyspdfmark {pgfid34}{12586591}{11754021}
\oddpage@label{8}{11}
\savepicturepage{pgfid35}{11}
\pgfsyspdfmark {pgfid35}{13891865}{11754021}
\oddpage@label{9}{11}
\savepicturepage{pgfid36}{11}
\pgfsyspdfmark {pgfid36}{9976043}{10729044}
\oddpage@label{10}{11}
\savepicturepage{pgfid37}{11}
\pgfsyspdfmark {pgfid37}{11281317}{10729044}
\oddpage@label{11}{11}
\savepicturepage{pgfid38}{11}
\pgfsyspdfmark {pgfid38}{12586591}{10729044}
\oddpage@label{12}{11}
\savepicturepage{pgfid39}{11}
\pgfsyspdfmark {pgfid39}{13891865}{10729044}
\oddpage@label{13}{11}
\savepicturepage{pgfid40}{11}
\pgfsyspdfmark {pgfid40}{9976043}{9704067}
\oddpage@label{14}{11}
\savepicturepage{pgfid41}{11}
\pgfsyspdfmark {pgfid41}{11281317}{9704067}
\oddpage@label{15}{11}
\savepicturepage{pgfid42}{11}
\pgfsyspdfmark {pgfid42}{12586591}{9704067}
\oddpage@label{16}{11}
\savepicturepage{pgfid43}{11}
\pgfsyspdfmark {pgfid43}{13891865}{9704067}
\oddpage@label{17}{11}
\savepicturepage{pgfid44}{11}
\pgfsyspdfmark {pgfid44}{9976043}{8679090}
\oddpage@label{18}{11}
\savepicturepage{pgfid45}{11}
\pgfsyspdfmark {pgfid45}{11281317}{8679090}
\oddpage@label{19}{11}
\savepicturepage{pgfid46}{11}
\pgfsyspdfmark {pgfid46}{12586591}{8679090}
\oddpage@label{20}{11}
\savepicturepage{pgfid47}{11}
\pgfsyspdfmark {pgfid47}{13891865}{8679090}
\oddpage@label{21}{11}
\savepicturepage{pgfid48}{11}
\pgfsyspdfmark {pgfid48}{1864679}{7119227}
\oddpage@label{22}{12}
\savepicturepage{pgfid51}{12}
\pgfsyspdfmark {pgfid51}{9976043}{11754021}
\oddpage@label{23}{12}
\savepicturepage{pgfid52}{12}
\pgfsyspdfmark {pgfid52}{11281317}{11754021}
\oddpage@label{24}{12}
\savepicturepage{pgfid53}{12}
\pgfsyspdfmark {pgfid53}{12586591}{11754021}
\oddpage@label{25}{12}
\savepicturepage{pgfid54}{12}
\pgfsyspdfmark {pgfid54}{13891865}{11754021}
\oddpage@label{26}{12}
\savepicturepage{pgfid55}{12}
\pgfsyspdfmark {pgfid55}{9976043}{10729044}
\oddpage@label{27}{12}
\savepicturepage{pgfid56}{12}
\pgfsyspdfmark {pgfid56}{11281317}{10729044}
\oddpage@label{28}{12}
\savepicturepage{pgfid57}{12}
\pgfsyspdfmark {pgfid57}{12586591}{10729044}
\oddpage@label{29}{12}
\savepicturepage{pgfid58}{12}
\pgfsyspdfmark {pgfid58}{13891865}{10729044}
\oddpage@label{30}{12}
\savepicturepage{pgfid59}{12}
\pgfsyspdfmark {pgfid59}{9976043}{9704067}
\oddpage@label{31}{12}
\savepicturepage{pgfid60}{12}
\pgfsyspdfmark {pgfid60}{11281317}{9704067}
\oddpage@label{32}{12}
\savepicturepage{pgfid61}{12}
\pgfsyspdfmark {pgfid61}{12586591}{9704067}
\oddpage@label{33}{12}
\savepicturepage{pgfid62}{12}
\pgfsyspdfmark {pgfid62}{13891865}{9704067}
\oddpage@label{34}{12}
\savepicturepage{pgfid63}{12}
\pgfsyspdfmark {pgfid63}{9976043}{8679090}
\oddpage@label{35}{12}
\savepicturepage{pgfid64}{12}
\pgfsyspdfmark {pgfid64}{11281317}{8679090}
\oddpage@label{36}{12}
\savepicturepage{pgfid65}{12}
\pgfsyspdfmark {pgfid65}{12586591}{8679090}
\oddpage@label{37}{12}
\savepicturepage{pgfid66}{12}
\pgfsyspdfmark {pgfid66}{13891865}{8679090}
\oddpage@label{38}{12}
\savepicturepage{pgfid67}{12}
\pgfsyspdfmark {pgfid67}{1864679}{7119227}
\oddpage@label{39}{13}
\savepicturepage{pgfid70}{13}
\pgfsyspdfmark {pgfid70}{9976043}{11754021}
\oddpage@label{40}{13}
\savepicturepage{pgfid71}{13}
\pgfsyspdfmark {pgfid71}{11281317}{11754021}
\oddpage@label{41}{13}
\savepicturepage{pgfid72}{13}
\pgfsyspdfmark {pgfid72}{12586591}{11754021}
\oddpage@label{42}{13}
\savepicturepage{pgfid73}{13}
\pgfsyspdfmark {pgfid73}{13891865}{11754021}
\oddpage@label{43}{13}
\savepicturepage{pgfid74}{13}
\pgfsyspdfmark {pgfid74}{9976043}{10729044}
\oddpage@label{44}{13}
\savepicturepage{pgfid75}{13}
\pgfsyspdfmark {pgfid75}{11281317}{10729044}
\oddpage@label{45}{13}
\savepicturepage{pgfid76}{13}
\pgfsyspdfmark {pgfid76}{12586591}{10729044}
\oddpage@label{46}{13}
\savepicturepage{pgfid77}{13}
\pgfsyspdfmark {pgfid77}{13891865}{10729044}
\oddpage@label{47}{13}
\savepicturepage{pgfid78}{13}
\pgfsyspdfmark {pgfid78}{9976043}{9704067}
\oddpage@label{48}{13}
\savepicturepage{pgfid79}{13}
\pgfsyspdfmark {pgfid79}{11281317}{9704067}
\oddpage@label{49}{13}
\savepicturepage{pgfid80}{13}
\pgfsyspdfmark {pgfid80}{12586591}{9704067}
\oddpage@label{50}{13}
\savepicturepage{pgfid81}{13}
\pgfsyspdfmark {pgfid81}{13891865}{9704067}
\oddpage@label{51}{13}
\savepicturepage{pgfid82}{13}
\pgfsyspdfmark {pgfid82}{9976043}{8679090}
\oddpage@label{52}{13}
\savepicturepage{pgfid83}{13}
\pgfsyspdfmark {pgfid83}{11281317}{8679090}
\oddpage@label{53}{13}
\savepicturepage{pgfid84}{13}
\pgfsyspdfmark {pgfid84}{12586591}{8679090}
\oddpage@label{54}{13}
\savepicturepage{pgfid85}{13}
\pgfsyspdfmark {pgfid85}{13891865}{8679090}
\oddpage@label{55}{13}
\savepicturepage{pgfid86}{13}
\pgfsyspdfmark {pgfid86}{1864679}{7119227}
\oddpage@label{56}{14}
\savepicturepage{pgfid89}{14}
\pgfsyspdfmark {pgfid89}{9976043}{11754021}
\oddpage@label{57}{14}
\savepicturepage{pgfid90}{14}
\pgfsyspdfmark {pgfid90}{11281317}{11754021}
\oddpage@label{58}{14}
\savepicturepage{pgfid91}{14}
\pgfsyspdfmark {pgfid91}{12586591}{11754021}
\oddpage@label{59}{14}
\savepicturepage{pgfid92}{14}
\pgfsyspdfmark {pgfid92}{13891865}{11754021}
\oddpage@label{60}{14}
\savepicturepage{pgfid93}{14}
\pgfsyspdfmark {pgfid93}{9976043}{10729044}
\oddpage@label{61}{14}
\savepicturepage{pgfid94}{14}
\pgfsyspdfmark {pgfid94}{11281317}{10729044}
\oddpage@label{62}{14}
\savepicturepage{pgfid95}{14}
\pgfsyspdfmark {pgfid95}{12586591}{10729044}
\oddpage@label{63}{14}
\savepicturepage{pgfid96}{14}
\pgfsyspdfmark {pgfid96}{13891865}{10729044}
\oddpage@label{64}{14}
\savepicturepage{pgfid97}{14}
\pgfsyspdfmark {pgfid97}{9976043}{9704067}
\oddpage@label{65}{14}
\savepicturepage{pgfid98}{14}
\pgfsyspdfmark {pgfid98}{11281317}{9704067}
\oddpage@label{66}{14}
\savepicturepage{pgfid99}{14}
\pgfsyspdfmark {pgfid99}{12586591}{9704067}
\oddpage@label{67}{14}
\savepicturepage{pgfid100}{14}
\pgfsyspdfmark {pgfid100}{13891865}{9704067}
\oddpage@label{68}{14}
\savepicturepage{pgfid101}{14}
\pgfsyspdfmark {pgfid101}{9976043}{8679090}
\oddpage@label{69}{14}
\savepicturepage{pgfid102}{14}
\pgfsyspdfmark {pgfid102}{11281317}{8679090}
\oddpage@label{70}{14}
\savepicturepage{pgfid103}{14}
\pgfsyspdfmark {pgfid103}{12586591}{8679090}
\oddpage@label{71}{14}
\savepicturepage{pgfid104}{14}
\pgfsyspdfmark {pgfid104}{13891865}{8679090}
\oddpage@label{72}{14}
\savepicturepage{pgfid105}{14}
\pgfsyspdfmark {pgfid105}{1864679}{7119227}
\@writefile{nav}{\headcommand {\slideentry {0}{0}{10}{11/14}{}{0}}}
\@writefile{nav}{\headcommand {\beamer@framepages {11}{14}}}
\newlabel{:matrix-vector-prod}{{4}{15}{Matrix-Vector Product}{Doc-Start}{}}
\@writefile{snm}{\beamer@slide {:matrix-vector-prod}{15}}
\@writefile{nav}{\headcommand {\slideentry {0}{0}{11}{15/15}{}{0}}}
\@writefile{nav}{\headcommand {\beamer@framepages {15}{15}}}
\oddpage@label{73}{16}
\savepicturepage{pgfid113}{16}
\pgfsyspdfmark {pgfid113}{8354279}{11024672}
\oddpage@label{74}{16}
\savepicturepage{pgfid114}{16}
\pgfsyspdfmark {pgfid114}{10581959}{11024672}
\oddpage@label{75}{16}
\savepicturepage{pgfid115}{16}
\pgfsyspdfmark {pgfid115}{8354279}{9999695}
\oddpage@label{76}{16}
\savepicturepage{pgfid116}{16}
\pgfsyspdfmark {pgfid116}{10581959}{9999695}
\oddpage@label{77}{16}
\savepicturepage{pgfid117}{16}
\pgfsyspdfmark {pgfid117}{8354279}{8974718}
\oddpage@label{78}{16}
\savepicturepage{pgfid118}{16}
\pgfsyspdfmark {pgfid118}{10581959}{8974718}
\oddpage@label{79}{16}
\savepicturepage{pgfid119}{16}
\pgfsyspdfmark {pgfid119}{8354279}{7949741}
\oddpage@label{80}{16}
\savepicturepage{pgfid120}{16}
\pgfsyspdfmark {pgfid120}{10581959}{7949741}
\oddpage@label{81}{16}
\savepicturepage{pgfid121}{16}
\pgfsyspdfmark {pgfid121}{12464481}{10512184}
\oddpage@label{82}{16}
\savepicturepage{pgfid122}{16}
\pgfsyspdfmark {pgfid122}{12464481}{8462230}
\oddpage@label{83}{16}
\savepicturepage{pgfid127}{16}
\pgfsyspdfmark {pgfid127}{1864679}{2845370}
\oddpage@label{84}{17}
\savepicturepage{pgfid129}{17}
\pgfsyspdfmark {pgfid129}{8354279}{11024672}
\oddpage@label{85}{17}
\savepicturepage{pgfid130}{17}
\pgfsyspdfmark {pgfid130}{10581959}{11024672}
\oddpage@label{86}{17}
\savepicturepage{pgfid131}{17}
\pgfsyspdfmark {pgfid131}{8354279}{9999695}
\oddpage@label{87}{17}
\savepicturepage{pgfid132}{17}
\pgfsyspdfmark {pgfid132}{10581959}{9999695}
\oddpage@label{88}{17}
\savepicturepage{pgfid133}{17}
\pgfsyspdfmark {pgfid133}{8354279}{8974718}
\oddpage@label{89}{17}
\savepicturepage{pgfid134}{17}
\pgfsyspdfmark {pgfid134}{10581959}{8974718}
\oddpage@label{90}{17}
\savepicturepage{pgfid135}{17}
\pgfsyspdfmark {pgfid135}{8354279}{7949741}
\oddpage@label{91}{17}
\savepicturepage{pgfid136}{17}
\pgfsyspdfmark {pgfid136}{10581959}{7949741}
\oddpage@label{92}{17}
\savepicturepage{pgfid137}{17}
\pgfsyspdfmark {pgfid137}{12464481}{10512184}
\oddpage@label{93}{17}
\savepicturepage{pgfid138}{17}
\pgfsyspdfmark {pgfid138}{12464481}{8462230}
\oddpage@label{94}{17}
\savepicturepage{pgfid144}{17}
\pgfsyspdfmark {pgfid144}{1864679}{2845370}
\oddpage@label{95}{18}
\savepicturepage{pgfid146}{18}
\pgfsyspdfmark {pgfid146}{8354279}{11024672}
\oddpage@label{96}{18}
\savepicturepage{pgfid147}{18}
\pgfsyspdfmark {pgfid147}{10581959}{11024672}
\oddpage@label{97}{18}
\savepicturepage{pgfid148}{18}
\pgfsyspdfmark {pgfid148}{8354279}{9999695}
\oddpage@label{98}{18}
\savepicturepage{pgfid149}{18}
\pgfsyspdfmark {pgfid149}{10581959}{9999695}
\oddpage@label{99}{18}
\savepicturepage{pgfid150}{18}
\pgfsyspdfmark {pgfid150}{8354279}{8974718}
\oddpage@label{100}{18}
\savepicturepage{pgfid151}{18}
\pgfsyspdfmark {pgfid151}{10581959}{8974718}
\oddpage@label{101}{18}
\savepicturepage{pgfid152}{18}
\pgfsyspdfmark {pgfid152}{8354279}{7949741}
\oddpage@label{102}{18}
\savepicturepage{pgfid153}{18}
\pgfsyspdfmark {pgfid153}{10581959}{7949741}
\oddpage@label{103}{18}
\savepicturepage{pgfid154}{18}
\pgfsyspdfmark {pgfid154}{12464481}{10512184}
\oddpage@label{104}{18}
\savepicturepage{pgfid155}{18}
\pgfsyspdfmark {pgfid155}{12464481}{8462230}
\oddpage@label{105}{18}
\savepicturepage{pgfid161}{18}
\pgfsyspdfmark {pgfid161}{1864679}{2845370}
\oddpage@label{106}{19}
\savepicturepage{pgfid163}{19}
\pgfsyspdfmark {pgfid163}{8354279}{11024672}
\oddpage@label{107}{19}
\savepicturepage{pgfid164}{19}
\pgfsyspdfmark {pgfid164}{10581959}{11024672}
\oddpage@label{108}{19}
\savepicturepage{pgfid165}{19}
\pgfsyspdfmark {pgfid165}{8354279}{9999695}
\oddpage@label{109}{19}
\savepicturepage{pgfid166}{19}
\pgfsyspdfmark {pgfid166}{10581959}{9999695}
\oddpage@label{110}{19}
\savepicturepage{pgfid167}{19}
\pgfsyspdfmark {pgfid167}{8354279}{8974718}
\oddpage@label{111}{19}
\savepicturepage{pgfid168}{19}
\pgfsyspdfmark {pgfid168}{10581959}{8974718}
\oddpage@label{112}{19}
\savepicturepage{pgfid169}{19}
\pgfsyspdfmark {pgfid169}{8354279}{7949741}
\oddpage@label{113}{19}
\savepicturepage{pgfid170}{19}
\pgfsyspdfmark {pgfid170}{10581959}{7949741}
\oddpage@label{114}{19}
\savepicturepage{pgfid171}{19}
\pgfsyspdfmark {pgfid171}{12464481}{10512184}
\oddpage@label{115}{19}
\savepicturepage{pgfid172}{19}
\pgfsyspdfmark {pgfid172}{12464481}{8462230}
\oddpage@label{116}{19}
\savepicturepage{pgfid178}{19}
\pgfsyspdfmark {pgfid178}{1864679}{2845370}
\oddpage@label{117}{20}
\savepicturepage{pgfid180}{20}
\pgfsyspdfmark {pgfid180}{8354279}{11024672}
\oddpage@label{118}{20}
\savepicturepage{pgfid181}{20}
\pgfsyspdfmark {pgfid181}{10581959}{11024672}
\oddpage@label{119}{20}
\savepicturepage{pgfid182}{20}
\pgfsyspdfmark {pgfid182}{8354279}{9999695}
\oddpage@label{120}{20}
\savepicturepage{pgfid183}{20}
\pgfsyspdfmark {pgfid183}{10581959}{9999695}
\oddpage@label{121}{20}
\savepicturepage{pgfid184}{20}
\pgfsyspdfmark {pgfid184}{8354279}{8974718}
\oddpage@label{122}{20}
\savepicturepage{pgfid185}{20}
\pgfsyspdfmark {pgfid185}{10581959}{8974718}
\oddpage@label{123}{20}
\savepicturepage{pgfid186}{20}
\pgfsyspdfmark {pgfid186}{8354279}{7949741}
\oddpage@label{124}{20}
\savepicturepage{pgfid187}{20}
\pgfsyspdfmark {pgfid187}{10581959}{7949741}
\oddpage@label{125}{20}
\savepicturepage{pgfid188}{20}
\pgfsyspdfmark {pgfid188}{12464481}{10512184}
\oddpage@label{126}{20}
\savepicturepage{pgfid189}{20}
\pgfsyspdfmark {pgfid189}{12464481}{8462230}
\oddpage@label{127}{20}
\savepicturepage{pgfid195}{20}
\pgfsyspdfmark {pgfid195}{1864679}{2845370}
\@writefile{nav}{\headcommand {\slideentry {0}{0}{12}{16/20}{}{0}}}
\@writefile{nav}{\headcommand {\beamer@framepages {16}{20}}}
\oddpage@label{128}{21}
\savepicturepage{pgfid197}{21}
\pgfsyspdfmark {pgfid197}{8623968}{10927541}
\oddpage@label{129}{21}
\savepicturepage{pgfid198}{21}
\pgfsyspdfmark {pgfid198}{10293498}{10927541}
\oddpage@label{130}{21}
\savepicturepage{pgfid199}{21}
\pgfsyspdfmark {pgfid199}{8623968}{9902564}
\oddpage@label{131}{21}
\savepicturepage{pgfid200}{21}
\pgfsyspdfmark {pgfid200}{10293498}{9902564}
\oddpage@label{132}{21}
\savepicturepage{pgfid201}{21}
\pgfsyspdfmark {pgfid201}{8623968}{8877587}
\oddpage@label{133}{21}
\savepicturepage{pgfid202}{21}
\pgfsyspdfmark {pgfid202}{10293498}{8877587}
\oddpage@label{134}{21}
\savepicturepage{pgfid203}{21}
\pgfsyspdfmark {pgfid203}{12185406}{10851792}
\oddpage@label{135}{21}
\savepicturepage{pgfid204}{21}
\pgfsyspdfmark {pgfid204}{12185406}{8801838}
\oddpage@label{136}{21}
\savepicturepage{pgfid206}{21}
\pgfsyspdfmark {pgfid206}{1864679}{7235810}
\oddpage@label{137}{22}
\savepicturepage{pgfid208}{22}
\pgfsyspdfmark {pgfid208}{8623968}{10927541}
\oddpage@label{138}{22}
\savepicturepage{pgfid209}{22}
\pgfsyspdfmark {pgfid209}{10293498}{10927541}
\oddpage@label{139}{22}
\savepicturepage{pgfid210}{22}
\pgfsyspdfmark {pgfid210}{8623968}{9902564}
\oddpage@label{140}{22}
\savepicturepage{pgfid211}{22}
\pgfsyspdfmark {pgfid211}{10293498}{9902564}
\oddpage@label{141}{22}
\savepicturepage{pgfid212}{22}
\pgfsyspdfmark {pgfid212}{8623968}{8877587}
\oddpage@label{142}{22}
\savepicturepage{pgfid213}{22}
\pgfsyspdfmark {pgfid213}{10293498}{8877587}
\oddpage@label{143}{22}
\savepicturepage{pgfid214}{22}
\pgfsyspdfmark {pgfid214}{12185406}{10851792}
\oddpage@label{144}{22}
\savepicturepage{pgfid215}{22}
\pgfsyspdfmark {pgfid215}{12185406}{8801838}
\oddpage@label{145}{22}
\savepicturepage{pgfid217}{22}
\pgfsyspdfmark {pgfid217}{1864679}{7235810}
\oddpage@label{146}{23}
\savepicturepage{pgfid219}{23}
\pgfsyspdfmark {pgfid219}{8623968}{10927541}
\oddpage@label{147}{23}
\savepicturepage{pgfid220}{23}
\pgfsyspdfmark {pgfid220}{10293498}{10927541}
\oddpage@label{148}{23}
\savepicturepage{pgfid221}{23}
\pgfsyspdfmark {pgfid221}{8623968}{9902564}
\oddpage@label{149}{23}
\savepicturepage{pgfid222}{23}
\pgfsyspdfmark {pgfid222}{10293498}{9902564}
\oddpage@label{150}{23}
\savepicturepage{pgfid223}{23}
\pgfsyspdfmark {pgfid223}{8623968}{8877587}
\oddpage@label{151}{23}
\savepicturepage{pgfid224}{23}
\pgfsyspdfmark {pgfid224}{10293498}{8877587}
\oddpage@label{152}{23}
\savepicturepage{pgfid225}{23}
\pgfsyspdfmark {pgfid225}{12185406}{10851792}
\oddpage@label{153}{23}
\savepicturepage{pgfid226}{23}
\pgfsyspdfmark {pgfid226}{12185406}{8801838}
\oddpage@label{154}{23}
\savepicturepage{pgfid228}{23}
\pgfsyspdfmark {pgfid228}{1864679}{7235810}
\@writefile{nav}{\headcommand {\slideentry {0}{0}{13}{21/23}{}{0}}}
\@writefile{nav}{\headcommand {\beamer@framepages {21}{23}}}
\newlabel{:system_equations1}{{5}{24}{A linear system}{Doc-Start}{}}
\@writefile{snm}{\beamer@slide {:system_equations1}{24}}
\@writefile{nav}{\headcommand {\slideentry {0}{0}{14}{24/24}{}{0}}}
\@writefile{nav}{\headcommand {\beamer@framepages {24}{24}}}
\@writefile{nav}{\headcommand {\slideentry {0}{0}{15}{25/25}{}{0}}}
\@writefile{nav}{\headcommand {\beamer@framepages {25}{25}}}
\@writefile{nav}{\headcommand {\slideentry {0}{0}{16}{26/26}{}{0}}}
\@writefile{nav}{\headcommand {\beamer@framepages {26}{26}}}
\newlabel{}{{1}{27}{}{Doc-Start}{}}
\@writefile{snm}{\beamer@slide {}{27}}
\newlabel{}{{2}{27}{}{Doc-Start}{}}
\@writefile{snm}{\beamer@slide {}{27}}
\newlabel{}{{3}{27}{}{Doc-Start}{}}
\@writefile{snm}{\beamer@slide {}{27}}
\newlabel{}{{4}{27}{}{Doc-Start}{}}
\@writefile{snm}{\beamer@slide {}{27}}
\newlabel{}{{5}{27}{}{Doc-Start}{}}
\@writefile{snm}{\beamer@slide {}{27}}
\newlabel{}{{6}{27}{}{Doc-Start}{}}
\@writefile{snm}{\beamer@slide {}{27}}
\@writefile{nav}{\headcommand {\slideentry {0}{0}{17}{27/27}{}{0}}}
\@writefile{nav}{\headcommand {\beamer@framepages {27}{27}}}
\@writefile{nav}{\headcommand {\slideentry {0}{0}{18}{28/29}{}{0}}}
\@writefile{nav}{\headcommand {\beamer@framepages {28}{29}}}
\@writefile{nav}{\headcommand {\slideentry {0}{0}{19}{30/30}{}{0}}}
\@writefile{nav}{\headcommand {\beamer@framepages {30}{30}}}
\@writefile{nav}{\headcommand {\slideentry {0}{0}{20}{31/31}{}{0}}}
\@writefile{nav}{\headcommand {\beamer@framepages {31}{31}}}
\@writefile{nav}{\headcommand {\slideentry {0}{0}{21}{32/32}{}{0}}}
\@writefile{nav}{\headcommand {\beamer@framepages {32}{32}}}
\@writefile{nav}{\headcommand {\slideentry {0}{0}{22}{33/33}{}{0}}}
\@writefile{nav}{\headcommand {\beamer@framepages {33}{33}}}
\oddpage@label{155}{34}
\savepicturepage{pgfid263}{34}
\pgfsyspdfmark {pgfid263}{11933954}{8508437}
\@writefile{nav}{\headcommand {\slideentry {0}{0}{23}{34/34}{}{0}}}
\@writefile{nav}{\headcommand {\beamer@framepages {34}{34}}}
\@writefile{nav}{\headcommand {\slideentry {0}{0}{24}{35/35}{}{0}}}
\@writefile{nav}{\headcommand {\beamer@framepages {35}{35}}}
\oddpage@label{156}{36}
\savepicturepage{pgfid268}{36}
\pgfsyspdfmark {pgfid268}{11933954}{6650973}
\@writefile{nav}{\headcommand {\slideentry {0}{0}{25}{36/36}{}{0}}}
\@writefile{nav}{\headcommand {\beamer@framepages {36}{36}}}
\@writefile{nav}{\headcommand {\slideentry {0}{0}{26}{37/37}{}{0}}}
\@writefile{nav}{\headcommand {\beamer@framepages {37}{37}}}
\@writefile{nav}{\headcommand {\slideentry {0}{0}{27}{38/38}{}{0}}}
\@writefile{nav}{\headcommand {\beamer@framepages {38}{38}}}
\newlabel{}{{7}{39}{}{Doc-Start}{}}
\@writefile{snm}{\beamer@slide {}{39}}
\newlabel{}{{8}{39}{}{Doc-Start}{}}
\@writefile{snm}{\beamer@slide {}{39}}
\newlabel{}{{9}{39}{}{Doc-Start}{}}
\@writefile{snm}{\beamer@slide {}{39}}
\newlabel{}{{10}{39}{}{Doc-Start}{}}
\@writefile{snm}{\beamer@slide {}{39}}
\newlabel{}{{11}{39}{}{Doc-Start}{}}
\@writefile{snm}{\beamer@slide {}{39}}
\@writefile{nav}{\headcommand {\slideentry {0}{0}{28}{39/39}{}{0}}}
\@writefile{nav}{\headcommand {\beamer@framepages {39}{39}}}
\newlabel{tab:elements}{{\caption@xref {tab:elements}{ on input line 1102}}{40}{}{Doc-Start}{}}
\@writefile{snm}{\beamer@slide {tab:elements}{40}}
\@writefile{nav}{\headcommand {\slideentry {0}{0}{29}{40/40}{}{0}}}
\@writefile{nav}{\headcommand {\beamer@framepages {40}{40}}}
\@writefile{nav}{\headcommand {\slideentry {0}{0}{30}{41/41}{}{0}}}
\@writefile{nav}{\headcommand {\beamer@framepages {41}{41}}}
\@writefile{nav}{\headcommand {\slideentry {0}{0}{31}{42/42}{}{0}}}
\@writefile{nav}{\headcommand {\beamer@framepages {42}{42}}}
\@writefile{nav}{\headcommand {\slideentry {0}{0}{32}{43/43}{}{0}}}
\@writefile{nav}{\headcommand {\beamer@framepages {43}{43}}}
\@writefile{nav}{\headcommand {\slideentry {0}{0}{33}{44/44}{}{0}}}
\@writefile{nav}{\headcommand {\beamer@framepages {44}{44}}}
\@writefile{nav}{\headcommand {\slideentry {0}{0}{34}{45/45}{}{0}}}
\@writefile{nav}{\headcommand {\beamer@framepages {45}{45}}}
\@writefile{nav}{\headcommand {\slideentry {0}{0}{35}{46/46}{}{0}}}
\@writefile{nav}{\headcommand {\beamer@framepages {46}{46}}}
\@writefile{nav}{\headcommand {\beamer@partpages {1}{46}}}
\@writefile{nav}{\headcommand {\beamer@subsectionpages {1}{46}}}
\@writefile{nav}{\headcommand {\beamer@sectionpages {1}{46}}}
\@writefile{nav}{\headcommand {\beamer@documentpages {46}}}
\@writefile{nav}{\headcommand {\gdef \inserttotalframenumber {35}}}
\gdef\minted@oldcachelist{,
  default-pyg-prefix.pygstyle,
  friendly.pygstyle,
  4EE7161039003A8B1CC2732208A995F7D0745E45DF3A5D02570E5DB006151CD5.pygtex,
  DDCEC2554F23D0A93BEBE5618D5B69BCD0745E45DF3A5D02570E5DB006151CD5.pygtex,
  EF25C34E45903AAF56C92A4A09EB535DD0745E45DF3A5D02570E5DB006151CD5.pygtex,
  44E6423860F5631153C4245F98989160D0745E45DF3A5D02570E5DB006151CD5.pygtex,
  401B30E3B8B5D629635A5C613CDB7919D0745E45DF3A5D02570E5DB006151CD5.pygtex,
  C55D72A59AF6795636D4A153689750E3D0745E45DF3A5D02570E5DB006151CD5.pygtex,
  AEB5722890C5370468B3D65C75955EF0D0745E45DF3A5D02570E5DB006151CD5.pygtex,
  A2DDA3C15B995A73C652B5A2530FD92CD0745E45DF3A5D02570E5DB006151CD5.pygtex,
  44E6423860F5631153C4245F98989160D0745E45DF3A5D02570E5DB006151CD5.pygtex,
  401B30E3B8B5D629635A5C613CDB7919D0745E45DF3A5D02570E5DB006151CD5.pygtex,
  C941B74F4AE17EBBE778852A49120ED8D0745E45DF3A5D02570E5DB006151CD5.pygtex}
